{
  "artists": {
    "href": "https://api.spotify.com/v1/search?offset=0&limit=1&query=billie&type=artist&locale=en-US,en;q%3D0.5",
    "limit": 1,
    "next": "https://api.spotify.com/v1/search?offset=1&limit=1&query=billie&type=artist&locale=en-US,en;q%3D0.5",
    "offset": 0,
    "previous": null,
    "total": 900,
    "items": [
      {
        "external_urls": {
          "spotify": "https://open.spotify.com/artist/5OlAhdgR13gu6r0MZU8eKj"
        },
        "followers": {
          "href": null,
          "total": 2368
        },
        "genres": [
          "french pop",
          "french indie pop"
        ],
        "href": "https://api.spotify.com/v1/artists/5OlAhdgR13gu6r0MZU8eKj",
        "id": "5OlAhdgR13gu6r0MZU8eKj",
        "images": [
          {
            "url": "https://i.scdn.co/image/ab6761610000e5eb9ad9b60ccf2bb14212f486cd",
            "height": 640,
            "width": 640
          },
          {
            "url": "https://i.scdn.co/image/ab676161000051749ad9b60ccf2bb14212f486cd",
            "height": 320,
            "width": 320
          },
          {
            "url": "https://i.scdn.co/image/ab6761610000f1789ad9b60ccf2bb14212f486cd",
            "height": 160,
            "width": 160
          }
        ],
        "name": "billie",
        "popularity": 24,
        "type": "artist",
        "uri": "spotify:artist:5OlAhdgR13gu6r0MZU8eKj"
      }
    ]
  }
}